----------------------------------------------INSTALLATION GUIDE---------------------------------------
1.install python
check:
>> python --version
>> pip --version

2.>> pip install virtualenvwrapper-win //Django- Space allocated for different projects. Setups the Environmnet

3. >> mkvirtualenv test //Creates Environment

4.>> pip install django

4. >> django-admin --version

5. >> mkdir Django // create a folder for managing

6. >> cd Django

7. >> django-admin startproject "projectname" // creates Project

8. cd "projectname"

9. >> python manage.py runserver //runs server with local host address
_____________________________________________________________________________________________________________________________________________________


Visual Studio : IDE
 To go to the environement : >> workon test

to create App ->calc
>> python manage.py startapp calc

_____________________________________________________________________________________________________________________________________________________

DB SETUP : postgres

- in settings.py files : 

DATABASES = {
    'default': {
        'ENGINE': 'django.db.backends.postgresql',
        'NAME':'DB1' ,
        'USER':'postgre' ,
        'PASSWORD':'kashish',
        'HOST':'localhost'
    }
}

- install : connects Django and postgres - connector
pip install psycopg2

- After DB table creation in models.py files

- settings.py ->
instlled apps line 1 add.

- Migrations :
python manage.py makemigrations

- To create tables
python manage.py sqlmigrate app1 0001

-
python manage.py migrate